module gitlab.com/gaia-x/data-infrastructure-federation-services/tsa/golib

go 1.19

require (
	github.com/lestrrat-go/jwx/v2 v2.0.6
	github.com/stretchr/testify v1.8.0
	goa.design/goa/v3 v3.8.5
)

require (
	github.com/davecgh/go-spew v1.1.1 // indirect
	github.com/decred/dcrd/dcrec/secp256k1/v4 v4.1.0 // indirect
	github.com/dimfeld/httptreemux/v5 v5.4.0 // indirect
	github.com/goccy/go-json v0.9.11 // indirect
	github.com/google/uuid v1.3.0 // indirect
	github.com/gorilla/websocket v1.5.0 // indirect
	github.com/hashicorp/errwrap v1.1.0 // indirect
	github.com/hashicorp/go-multierror v1.1.1 // indirect
	github.com/lestrrat-go/blackmagic v1.0.1 // indirect
	github.com/lestrrat-go/httpcc v1.0.1 // indirect
	github.com/lestrrat-go/httprc v1.0.4 // indirect
	github.com/lestrrat-go/iter v1.0.2 // indirect
	github.com/lestrrat-go/option v1.0.0 // indirect
	github.com/pmezard/go-difflib v1.0.0 // indirect
	golang.org/x/crypto v0.0.0-20220427172511-eb4f295cb31f // indirect
	gopkg.in/yaml.v3 v3.0.1 // indirect
)
